Reproducible Workflows with R Markdown
…
# Under the hood

First, we piped (`%>%`) the `ttnc` data into the next function (`tibble_one`)

```r
*ttnc %>%
  tibble_one(formula = ~ class | died) %>% 
  to_kable(escape = FALSE) %>% 
  kable_styling()
```

```
## # A tibble: 2,207 x 6
##    died  gender   age class sibsp parch
##    <fct> <fct>  <dbl> <fct> <dbl> <dbl>
##  1 Yes   Male      42 3rd       0     0
##  2 Yes   Male      13 3rd       0     2
##  3 Yes   Male      16 3rd       1     1
##  4 No    Female    39 3rd       1     1
##  5 No    Female    16 3rd       0     0
##  6 No    Male      25 3rd       0     0
##  7 Yes   Male      30 2nd       1     0
##  8 No    Female    28 2nd       1     0
##  9 No    Male      27 3rd       0     0
## 10 No    Male      20 3rd       0     0
## # ... with 2,197 more rows
```
…
